…
## b      0.0543                              0.0543                     
##  
##   Covariance Type (fit$covMethod): monolix2rx
##   No correlations in between subject variability (BSV) matrix
##   Full BSV covariance (fit$omega) or correlation (fit$omegaR; diagonals=SDs) 
##   Distribution stats (mean/skewness/kurtosis/p-value) available in fit$shrink 
##   Censoring (fit$censInformation): No censoring
##   Minimization message (fit$message):  
##     IPRED relative difference compared to Monolix IPRED: 0.04%; 95% percentile: (0%,0.52%); rtol=0.000379
##     PRED relative difference compared to Monolix PRED: 0%; 95% percentile: (0%,0%); rtol=4.94e-07
##     IPRED absolute difference compared to Monolix IPRED: atol=0.00253; 95% percentile: (0.000364, 0.00848)
##     PRED absolute difference compared to Monolix PRED: atol=4.94e-07; 95% percentile: (1.13e-08, 0.000308) 
## 
## ── Fit Data (object fit is a modified tibble): ──
## # A tibble: 120 × 20
##   ID     TIME    DV  PRED    RES IPRED     IRES    IWRES omega_ka omega_V
##   <fct> <dbl> <dbl> <dbl>  <dbl> <dbl>    <dbl>    <dbl>    <dbl>   <dbl>
## 1 1      0.25  2.84  2.78 0.0636  3.73 -0.887   -1.40       0.132  -0.183
## 2 1      0.57  6.57  5.00 1.57    6.57  0.00239  0.00303    0.132  -0.183
## 3 1      1.12 10.5   6.80 3.70    8.75  1.75     1.93       0.132  -0.183
## # ℹ 117 more rows
## # ℹ 10 more variables: omega_Cl <dbl>, CONC <dbl>, depot <dbl>, central <dbl>,
## #   ka <dbl>, V <dbl>, Cl <dbl>, Cc <dbl>, tad <dbl>, dosenum <dbl>
…
## b      0.0543                              0.0543                     
##  
##   Covariance Type ($covMethod): monolix2rx
##   No correlations in between subject variability (BSV) matrix
##   Full BSV covariance ($omega) or correlation ($omegaR; diagonals=SDs) 
##   Distribution stats (mean/skewness/kurtosis/p-value) available in $shrink 
##   Censoring ($censInformation): No censoring
##   Minimization message ($message):  
##     IPRED relative difference compared to Monolix IPRED: 0.04%; 95% percentile: (0%,0.52%); rtol=0.000379
##     PRED relative difference compared to Monolix PRED: 0%; 95% percentile: (0%,0%); rtol=4.94e-07
##     IPRED absolute difference compared to Monolix IPRED: atol=0.00253; 95% percentile: (0.000364, 0.00848)
##     PRED absolute difference compared to Monolix PRED: atol=4.94e-07; 95% percentile: (1.13e-08, 0.000308) 
## 
## ── Fit Data (object is a modified tibble): ──
## # A tibble: 120 × 24
##   ID     TIME    DV  PRED    RES IPRED     IRES    IWRES omega_ka omega_V
##   <fct> <dbl> <dbl> <dbl>  <dbl> <dbl>    <dbl>    <dbl>    <dbl>   <dbl>
## 1 1      0.25  2.84  2.78 0.0636  3.73 -0.887   -1.40       0.132  -0.183
## 2 1      0.57  6.57  5.00 1.57    6.57  0.00239  0.00303    0.132  -0.183
## 3 1      1.12 10.5   6.80 3.70    8.75  1.75     1.93       0.132  -0.183
## # ℹ 117 more rows
## # ℹ 14 more variables: omega_Cl <dbl>, CONC <dbl>, depot <dbl>, central <dbl>,
## #   ka <dbl>, V <dbl>, Cl <dbl>, Cc <dbl>, tad <dbl>, dosenum <dbl>,
## #   WRES <dbl>, CPRED <dbl>, CRES <dbl>, CWRES <dbl>
