…
Continuing from a simple simulation, we have:

s <- rxSolve(m2, ev, nSub=500)

ci <- confint(s, parm=c("eff", "C2"), 0.95)

## ! in order to put confidence bands around the intervals, you need at least 2500 simulations

## summarizing data...done

# The numeric quantiles from `confint()`
print(ci)

## # A tibble: 600 × 5
##     time trt       p1   eff Percentile
##      [h] <fct>  <dbl> <dbl> <chr>     
##  1 0     eff   0.0250  1    2.5%      
##  2 0     eff   0.5     1    50%       
##  3 0     eff   0.975   1    97.5%     
##  4 0.364 eff   0.0250  1.16 2.5%      
##  5 0.364 eff   0.5     1.17 50%       
##  6 0.364 eff   0.975   1.18 97.5%     
##  7 0.727 eff   0.0250  1.26 2.5%      
##  8 0.727 eff   0.5     1.29 50%       
##  9 0.727 eff   0.975   1.31 97.5%     
## 10 1.09  eff   0.0250  1.29 2.5%      
## # ℹ 590 more rows
…
As mentioned in the notes, with enough simulations you can get a
confidence band around the interval.

s <- rxSolve(m2, ev, nSub=2500)

ci <- confint(s, parm=c("eff", "C2"), 0.95)

## summarizing data...done

# The numeric confidence intervals:
print(ci)

## # A tibble: 600 × 7
##        p1  time trt    p2.5   p50 p97.5 Percentile
##     <dbl>   [h] <fct> <dbl> <dbl> <dbl> <fct>     
##  1 0.0250 0     eff    1     1     1    2.5%      
##  2 0.5    0     eff    1     1     1    50%       
##  3 0.975  0     eff    1     1     1    97.5%     
##  4 0.0250 0.364 eff    1.16  1.17  1.17 2.5%      
##  5 0.5    0.364 eff    1.17  1.17  1.17 50%       
##  6 0.975  0.364 eff    1.18  1.18  1.18 97.5%     
##  7 0.0250 0.727 eff    1.25  1.26  1.27 2.5%      
##  8 0.5    0.727 eff    1.29  1.29  1.30 50%       
##  9 0.975  0.727 eff    1.31  1.31  1.31 97.5%     
## 10 0.0250 1.09  eff    1.27  1.30  1.32 2.5%      
## # ℹ 590 more rows
…
## [====|====|====|====|====|====|====|====|====|====] 0:00:05

# NOTE: by is not a documented in `confint` but can be used
# by a rxode2 solved object
ci <- confint(s, parm=c("eff", "C2"), 0.95, by="sex")

## summarizing data...

## done

# The numeric confidence intervals:
print(ci)

## # A tibble: 1,200 × 8
##        p1  time trt   sex    p2.5   p50 p97.5 Percentile
##     <dbl>   [h] <fct> <fct> <dbl> <dbl> <dbl> <fct>     
##  1 0.0250 0     eff   Male   1     1     1    2.5%      
##  2 0.5    0     eff   Male   1     1     1    50%       
##  3 0.975  0     eff   Male   1     1     1    97.5%     
##  4 0.0250 0.364 eff   Male   1.16  1.16  1.17 2.5%      
##  5 0.5    0.364 eff   Male   1.17  1.17  1.17 50%       
##  6 0.975  0.364 eff   Male   1.18  1.18  1.18 97.5%     
##  7 0.0250 0.727 eff   Male   1.24  1.26  1.27 2.5%      
##  8 0.5    0.727 eff   Male   1.29  1.29  1.30 50%       
##  9 0.975  0.727 eff   Male   1.30  1.31  1.31 97.5%     
## 10 0.0250 1.09  eff   Male   1.26  1.29  1.32 2.5%      
## # ℹ 1,190 more rows
…
