…
##  
##   Covariance Type ($covMethod): r,s
##   No correlations in between subject variability (BSV) matrix
##   Full BSV covariance ($omega) or correlation ($omegaR; diagonals=SDs) 
##   Distribution stats (mean/skewness/kurtosis/p-value) available in $shrink 
##   Information about run found ($runInfo):
##    • gradient problems with initial estimate and covariance; see $scaleInfo 
##    • ETAs were reset to zero during optimization; (Can control by foceiControl(resetEtaP=.)) 
##    • initial ETAs were nudged; (can control by foceiControl(etaNudge=., etaNudge2=)) 
##   Censoring ($censInformation): No censoring
##   Minimization message ($message):  
##     relative convergence (4) 
## 
## ── Fit Data (object is a modified tibble): ──
## # A tibble: 132 × 22
##   ID     TIME    DV  PRED    RES   WRES IPRED   IRES  IWRES CPRED   CRES  CWRES
##   <fct> <dbl> <dbl> <dbl>  <dbl>  <dbl> <dbl>  <dbl>  <dbl> <dbl>  <dbl>  <dbl>
## 1 1      0     0.74  0     0.74   1.06   0     0.74   1.06   0     0.74   1.06 
## 2 1      0.25  2.84  3.27 -0.425 -0.513  3.84 -1.00  -1.44   3.52 -0.676 -0.774
## 3 1      0.57  6.57  5.84  0.728  0.687  6.78 -0.214 -0.307  6.20  0.366  0.315
## # ℹ 129 more rows
## # ℹ 10 more variables: eta.ka <dbl>, eta.cl <dbl>, eta.v <dbl>, depot <dbl>,
## #   central <dbl>, ka <dbl>, cl <dbl>, v <dbl>, tad <dbl>, dosenum <dbl>
…
