…
##  3 3      0.45     1  3.45    0.7  1.30    -0.850  -0.0670 
##  4 4      0.45     1  3.45    0.7 -1.14     0.427  -0.451  
##  5 5      0.45     1  3.45    0.7  0.307    0.114   0.501  
##  6 6      0.45     1  3.45    0.7 -1.23    -0.453   0.359  
##  7 7      0.45     1  3.45    0.7 -0.648   -0.591   0.00655
##  8 8      0.45     1  3.45    0.7  0.0719   0.235  -0.463  
##  9 9      0.45     1  3.45    0.7  0.307   -0.127   0.0157 
## 10 10     0.45     1  3.45    0.7  0.00668  0.0771 -0.285  
## 11 11     0.45     1  3.45    0.7 -0.561   -0.177  -0.109  
## 12 12     0.45     1  3.45    0.7 -1.65     0.424   0.102  
## ── Initial Conditions ($inits): ──
##  depot center 
##      0      0 
## ── First part of data (object): ──
## # A tibble: 156 × 10
##      id  time    ka    cl     v    cp ipredSim    sim  depot center
##   <int> <dbl> <dbl> <dbl> <dbl> <dbl>    <dbl>  <dbl>  <dbl>  <dbl>
## 1     1     0 0.476  5.41  29.4  0        0    -0.231 300       0  
## 2     1     2 0.476  5.41  29.4  5.09     5.09  5.71  116.    150. 
## 3     1     4 0.476  5.41  29.4  5.49     5.49  6.60   44.7   161. 
## 4     1     6 0.476  5.41  29.4  4.56     4.56  4.60   17.3   134. 
## 5     1     8 0.476  5.41  29.4  3.45     3.45  2.67    6.67  101. 
## 6     1    10 0.476  5.41  29.4  2.50     2.50  2.35    2.57   73.4
## # ℹ 150 more rows
…
##  3 3      0.45     1  3.45    0.7 -0.0765 -0.213 
##  4 4      0.45     1  3.45    0.7 -0.782   0.0938
##  5 5      0.45     1  3.45    0.7 -0.659  -0.399 
##  6 6      0.45     1  3.45    0.7  0.199   0.212 
##  7 7      0.45     1  3.45    0.7 -0.588  -0.0836
##  8 8      0.45     1  3.45    0.7  0.880   0.0655
##  9 9      0.45     1  3.45    0.7 -0.635  -0.210 
## 10 10     0.45     1  3.45    0.7 -0.0387  0.602 
## 11 11     0.45     1  3.45    0.7  0.433   0.305 
## 12 12     0.45     1  3.45    0.7  0.781   0.393 
## ── Initial Conditions ($inits): ──
##  depot center 
##      0      0 
## ── First part of data (object): ──
## # A tibble: 156 × 10
##      id  time    ka    cl     v    cp ipredSim   sim       depot center
##   <int> <dbl> <dbl> <dbl> <dbl> <dbl>    <dbl> <dbl>       <dbl>  <dbl>
## 1     1     0  1.57  2.40  29.6  0        0    0.405 300             0 
## 2     1     2  1.57  2.40  29.6  8.62     8.62 9.00   13.0         255.
## 3     1     4  1.57  2.40  29.6  7.70     7.70 7.71    0.566       228.
## 4     1     6  1.57  2.40  29.6  6.57     6.57 7.46    0.0246      195.
## 5     1     8  1.57  2.40  29.6  5.59     5.59 5.26    0.00107     165.
## 6     1    10  1.57  2.40  29.6  4.75     4.75 3.96    0.0000463   141.
## # ℹ 150 more rows
…
