…
## tcl           Cl  1.02 0.0832 8.16       2.77 (2.35, 3.26)     26.5      5.12% 
## tv             V  3.45 0.0447 1.29         31.7 (29, 34.6)     13.1      9.33% 
## wt.cl   WT on CL 0.564   0.62  110     0.564 (-0.65, 1.78)                     
## add.sd           0.696                               0.696                     
##  
##   Covariance Type ($covMethod): linFim
##   No correlations in between subject variability (BSV) matrix
##   Full BSV covariance ($omega) or correlation ($omegaR; diagonals=SDs) 
##   Distribution stats (mean/skewness/kurtosis/p-value) available in $shrink 
##   Information about run found ($runInfo):
##    • μ₃ item: wt70 
##   Censoring ($censInformation): No censoring
## 
## ── Fit Data (object is a modified tibble): ──
## # A tibble: 132 × 21
##   ID     TIME    DV  PRED    RES IPRED   IRES  IWRES eta.ka eta.cl   eta.v    cp
##   <fct> <dbl> <dbl> <dbl>  <dbl> <dbl>  <dbl>  <dbl>  <dbl>  <dbl>   <dbl> <dbl>
## 1 1      0     0.74  0     0.74   0     0.74   1.06  0.0875 -0.549 -0.0849  0   
## 2 1      0.25  2.84  3.27 -0.430  3.84 -0.998 -1.43  0.0875 -0.549 -0.0849  3.84
## 3 1      0.57  6.57  5.84  0.733  6.77 -0.202 -0.290 0.0875 -0.549 -0.0849  6.77
## # ℹ 129 more rows
## # ℹ 9 more variables: depot <dbl>, center <dbl>, wt70 <dbl>, ka <dbl>,
## #   cl <dbl>, v <dbl>, tad <dbl>, dosenum <dbl>, WT <dbl>
…
## tcl         4.75% 
## tv          10.8% 
## wt.cl             
## add.sd            
##  
##   Covariance Type ($covMethod): linFim
##   No correlations in between subject variability (BSV) matrix
##   Full BSV covariance ($omega) or correlation ($omegaR; diagonals=SDs) 
##   Distribution stats (mean/skewness/kurtosis/p-value) available in $shrink 
##   Information about run found ($runInfo):
##    • μ₄ item: (wt70 == "Less than 70") 
##   Censoring ($censInformation): No censoring
## 
## ── Fit Data (object is a modified tibble): ──
## # A tibble: 132 × 21
##   ID     TIME    DV  PRED    RES IPRED   IRES  IWRES eta.ka eta.cl   eta.v    cp
##   <fct> <dbl> <dbl> <dbl>  <dbl> <dbl>  <dbl>  <dbl>  <dbl>  <dbl>   <dbl> <dbl>
## 1 1      0     0.74  0     0.74   0     0.74   1.06  0.0689 -0.499 -0.0907  0   
## 2 1      0.25  2.84  3.28 -0.436  3.81 -0.968 -1.39  0.0689 -0.499 -0.0907  3.81
## 3 1      0.57  6.57  5.85  0.721  6.74 -0.170 -0.244 0.0689 -0.499 -0.0907  6.74
## # ℹ 129 more rows
## # ℹ 9 more variables: depot <dbl>, center <dbl>, wt70 <fct>, ka <dbl>,
## #   cl <dbl>, v <dbl>, tad <dbl>, dosenum <dbl>, WT <dbl>
…
