…
##   Covariance Type ($covMethod): r,s
##   No correlations in between subject variability (BSV) matrix
##   Full BSV covariance ($omega) or correlation ($omegaR; diagonals=SDs) 
##   Distribution stats (mean/skewness/kurtosis/p-value) available in $shrink 
##   Information about run found ($runInfo):
##    • gradient problems with initial estimate and covariance; see $scaleInfo 
##    • last objective function was not at minimum, possible problems in optimization 
##    • ETAs were reset to zero during optimization; (Can control by foceiControl(resetEtaP=.)) 
##    • initial ETAs were nudged; (can control by foceiControl(etaNudge=., etaNudge2=)) 
##   Censoring ($censInformation): No censoring
##   Minimization message ($message):  
##     relative convergence (4) 
## 
## ── Fit Data (object is a modified tibble): ──
## # A tibble: 132 × 22
##   ID     TIME    DV  PRED    RES   WRES IPRED   IRES  IWRES CPRED   CRES  CWRES
##   <fct> <dbl> <dbl> <dbl>  <dbl>  <dbl> <dbl>  <dbl>  <dbl> <dbl>  <dbl>  <dbl>
## 1 1      0     0.74  0     0.74   1.07   0     0.74   1.07   0     0.74   1.07 
## 2 1      0.25  2.84  3.28 -0.437 -0.525  3.85 -1.01  -1.45   3.49 -0.654 -0.744
## 3 1      0.57  6.57  5.85  0.721  0.672  6.79 -0.216 -0.311  6.16  0.405  0.344
## # ℹ 129 more rows
## # ℹ 10 more variables: eta.ka <dbl>, eta.cl <dbl>, eta.v <dbl>, depot <dbl>,
## #   central <dbl>, ka <dbl>, cl <dbl>, v <dbl>, tad <dbl>, dosenum <dbl>
…
